{
  "page": 1,
  "per_page": 10,
  "photos": [
      {
          "id": 71241,
          "width": 3888,
          "height": 2202,
          "url": "https://www.pexels.com/photo/gray-pyramid-on-dessert-under-blue-sky-71241/",
          "photographer": "David McEachan",
          "photographer_url": "https://www.pexels.com/@davidmceachan",
          "photographer_id": 15118,
          "avg_color": "#90A5A5",
          "src": {
              "original": "https://images.pexels.com/photos/71241/pexels-photo-71241.jpeg",
              "large2x": "https://images.pexels.com/photos/71241/pexels-photo-71241.jpeg?auto=compress&cs=tinysrgb&dpr=2&h=650&w=940",
              "large": "https://images.pexels.com/photos/71241/pexels-photo-71241.jpeg?auto=compress&cs=tinysrgb&h=650&w=940",
              "medium": "https://images.pexels.com/photos/71241/pexels-photo-71241.jpeg?auto=compress&cs=tinysrgb&h=350",
              "small": "https://images.pexels.com/photos/71241/pexels-photo-71241.jpeg?auto=compress&cs=tinysrgb&h=130",
              "portrait": "https://images.pexels.com/photos/71241/pexels-photo-71241.jpeg?auto=compress&cs=tinysrgb&fit=crop&h=1200&w=800",
              "landscape": "https://images.pexels.com/photos/71241/pexels-photo-71241.jpeg?auto=compress&cs=tinysrgb&fit=crop&h=627&w=1200",
              "tiny": "https://images.pexels.com/photos/71241/pexels-photo-71241.jpeg?auto=compress&cs=tinysrgb&dpr=1&fit=crop&h=200&w=280"
          },
          "liked": false,
          "alt": "Gray Pyramid on Dessert Under Blue Sky"
      },
      {
          "id": 33571,
          "width": 1241,
          "height": 2048,
          "url": "https://www.pexels.com/photo/gold-tutankhamun-statue-33571/",
          "photographer": "Pixabay",
          "photographer_url": "https://www.pexels.com/@pixabay",
          "photographer_id": 2659,
          "avg_color": "#5F421E",
          "src": {
              "original": "https://images.pexels.com/photos/33571/tutankhamun-death-mask-pharaonic-egypt.jpg",
              "large2x": "https://images.pexels.com/photos/33571/tutankhamun-death-mask-pharaonic-egypt.jpg?auto=compress&cs=tinysrgb&dpr=2&h=650&w=940",
              "large": "https://images.pexels.com/photos/33571/tutankhamun-death-mask-pharaonic-egypt.jpg?auto=compress&cs=tinysrgb&h=650&w=940",
              "medium": "https://images.pexels.com/photos/33571/tutankhamun-death-mask-pharaonic-egypt.jpg?auto=compress&cs=tinysrgb&h=350",
              "small": "https://images.pexels.com/photos/33571/tutankhamun-death-mask-pharaonic-egypt.jpg?auto=compress&cs=tinysrgb&h=130",
              "portrait": "https://images.pexels.com/photos/33571/tutankhamun-death-mask-pharaonic-egypt.jpg?auto=compress&cs=tinysrgb&fit=crop&h=1200&w=800",
              "landscape": "https://images.pexels.com/photos/33571/tutankhamun-death-mask-pharaonic-egypt.jpg?auto=compress&cs=tinysrgb&fit=crop&h=627&w=1200",
              "tiny": "https://images.pexels.com/photos/33571/tutankhamun-death-mask-pharaonic-egypt.jpg?auto=compress&cs=tinysrgb&dpr=1&fit=crop&h=200&w=280"
          },
          "liked": false,
          "alt": "Gold Tutankhamun Statue"
      },
      {
          "id": 262780,
          "width": 2200,
          "height": 1940,
          "url": "https://www.pexels.com/photo/great-sphinx-of-giza-under-blue-starry-sky-262780/",
          "photographer": "Pixabay",
          "photographer_url": "https://www.pexels.com/@pixabay",
          "photographer_id": 2659,
          "avg_color": "#495F62",
          "src": {
              "original": "https://images.pexels.com/photos/262780/pexels-photo-262780.jpeg",
              "large2x": "https://images.pexels.com/photos/262780/pexels-photo-262780.jpeg?auto=compress&cs=tinysrgb&dpr=2&h=650&w=940",
              "large": "https://images.pexels.com/photos/262780/pexels-photo-262780.jpeg?auto=compress&cs=tinysrgb&h=650&w=940",
              "medium": "https://images.pexels.com/photos/262780/pexels-photo-262780.jpeg?auto=compress&cs=tinysrgb&h=350",
              "small": "https://images.pexels.com/photos/262780/pexels-photo-262780.jpeg?auto=compress&cs=tinysrgb&h=130",
              "portrait": "https://images.pexels.com/photos/262780/pexels-photo-262780.jpeg?auto=compress&cs=tinysrgb&fit=crop&h=1200&w=800",
              "landscape": "https://images.pexels.com/photos/262780/pexels-photo-262780.jpeg?auto=compress&cs=tinysrgb&fit=crop&h=627&w=1200",
              "tiny": "https://images.pexels.com/photos/262780/pexels-photo-262780.jpeg?auto=compress&cs=tinysrgb&dpr=1&fit=crop&h=200&w=280"
          },
          "liked": false,
          "alt": "Great Sphinx Of Giza Under Blue Starry Sky"
      },
      {
          "id": 931881,
          "width": 4033,
          "height": 1523,
          "url": "https://www.pexels.com/photo/brown-camel-931881/",
          "photographer": "Simon Berger",
          "photographer_url": "https://www.pexels.com/@8moments",
          "photographer_id": 181980,
          "avg_color": "#BCC2B8",
          "src": {
              "original": "https://images.pexels.com/photos/931881/pexels-photo-931881.jpeg",
              "large2x": "https://images.pexels.com/photos/931881/pexels-photo-931881.jpeg?auto=compress&cs=tinysrgb&dpr=2&h=650&w=940",
              "large": "https://images.pexels.com/photos/931881/pexels-photo-931881.jpeg?auto=compress&cs=tinysrgb&h=650&w=940",
              "medium": "https://images.pexels.com/photos/931881/pexels-photo-931881.jpeg?auto=compress&cs=tinysrgb&h=350",
              "small": "https://images.pexels.com/photos/931881/pexels-photo-931881.jpeg?auto=compress&cs=tinysrgb&h=130",
              "portrait": "https://images.pexels.com/photos/931881/pexels-photo-931881.jpeg?auto=compress&cs=tinysrgb&fit=crop&h=1200&w=800",
              "landscape": "https://images.pexels.com/photos/931881/pexels-photo-931881.jpeg?auto=compress&cs=tinysrgb&fit=crop&h=627&w=1200",
              "tiny": "https://images.pexels.com/photos/931881/pexels-photo-931881.jpeg?auto=compress&cs=tinysrgb&dpr=1&fit=crop&h=200&w=280"
          },
          "liked": false,
          "alt": "Brown Camel"
      },
      {
          "id": 91409,
          "width": 2602,
          "height": 3906,
          "url": "https://www.pexels.com/photo/grey-concrete-pyramids-on-the-middle-of-the-dessert-during-daytime-91409/",
          "photographer": "David McEachan",
          "photographer_url": "https://www.pexels.com/@davidmceachan",
          "photographer_id": 15118,
          "avg_color": "#67648E",
          "src": {
              "original": "https://images.pexels.com/photos/91409/pexels-photo-91409.jpeg",
              "large2x": "https://images.pexels.com/photos/91409/pexels-photo-91409.jpeg?auto=compress&cs=tinysrgb&dpr=2&h=650&w=940",
              "large": "https://images.pexels.com/photos/91409/pexels-photo-91409.jpeg?auto=compress&cs=tinysrgb&h=650&w=940",
              "medium": "https://images.pexels.com/photos/91409/pexels-photo-91409.jpeg?auto=compress&cs=tinysrgb&h=350",
              "small": "https://images.pexels.com/photos/91409/pexels-photo-91409.jpeg?auto=compress&cs=tinysrgb&h=130",
              "portrait": "https://images.pexels.com/photos/91409/pexels-photo-91409.jpeg?auto=compress&cs=tinysrgb&fit=crop&h=1200&w=800",
              "landscape": "https://images.pexels.com/photos/91409/pexels-photo-91409.jpeg?auto=compress&cs=tinysrgb&fit=crop&h=627&w=1200",
              "tiny": "https://images.pexels.com/photos/91409/pexels-photo-91409.jpeg?auto=compress&cs=tinysrgb&dpr=1&fit=crop&h=200&w=280"
          },
          "liked": false,
          "alt": "Grey Concrete Pyramids on the Middle of the Dessert during Daytime"
      },
      {
          "id": 262786,
          "width": 2200,
          "height": 1946,
          "url": "https://www.pexels.com/photo/the-great-sphinx-262786/",
          "photographer": "Pixabay",
          "photographer_url": "https://www.pexels.com/@pixabay",
          "photographer_id": 2659,
          "avg_color": "#5D4433",
          "src": {
              "original": "https://images.pexels.com/photos/262786/pexels-photo-262786.jpeg",
              "large2x": "https://images.pexels.com/photos/262786/pexels-photo-262786.jpeg?auto=compress&cs=tinysrgb&dpr=2&h=650&w=940",
              "large": "https://images.pexels.com/photos/262786/pexels-photo-262786.jpeg?auto=compress&cs=tinysrgb&h=650&w=940",
              "medium": "https://images.pexels.com/photos/262786/pexels-photo-262786.jpeg?auto=compress&cs=tinysrgb&h=350",
              "small": "https://images.pexels.com/photos/262786/pexels-photo-262786.jpeg?auto=compress&cs=tinysrgb&h=130",
              "portrait": "https://images.pexels.com/photos/262786/pexels-photo-262786.jpeg?auto=compress&cs=tinysrgb&fit=crop&h=1200&w=800",
              "landscape": "https://images.pexels.com/photos/262786/pexels-photo-262786.jpeg?auto=compress&cs=tinysrgb&fit=crop&h=627&w=1200",
              "tiny": "https://images.pexels.com/photos/262786/pexels-photo-262786.jpeg?auto=compress&cs=tinysrgb&dpr=1&fit=crop&h=200&w=280"
          },
          "liked": false,
          "alt": "The Great Sphinx"
      },
      {
          "id": 1755390,
          "width": 3648,
          "height": 5472,
          "url": "https://www.pexels.com/photo/white-sailboat-1755390/",
          "photographer": "Oziel Gómez",
          "photographer_url": "https://www.pexels.com/@ozgomz",
          "photographer_id": 270062,
          "avg_color": "#857D74",
          "src": {
              "original": "https://images.pexels.com/photos/1755390/pexels-photo-1755390.jpeg",
              "large2x": "https://images.pexels.com/photos/1755390/pexels-photo-1755390.jpeg?auto=compress&cs=tinysrgb&dpr=2&h=650&w=940",
              "large": "https://images.pexels.com/photos/1755390/pexels-photo-1755390.jpeg?auto=compress&cs=tinysrgb&h=650&w=940",
              "medium": "https://images.pexels.com/photos/1755390/pexels-photo-1755390.jpeg?auto=compress&cs=tinysrgb&h=350",
              "small": "https://images.pexels.com/photos/1755390/pexels-photo-1755390.jpeg?auto=compress&cs=tinysrgb&h=130",
              "portrait": "https://images.pexels.com/photos/1755390/pexels-photo-1755390.jpeg?auto=compress&cs=tinysrgb&fit=crop&h=1200&w=800",
              "landscape": "https://images.pexels.com/photos/1755390/pexels-photo-1755390.jpeg?auto=compress&cs=tinysrgb&fit=crop&h=627&w=1200",
              "tiny": "https://images.pexels.com/photos/1755390/pexels-photo-1755390.jpeg?auto=compress&cs=tinysrgb&dpr=1&fit=crop&h=200&w=280"
          },
          "liked": false,
          "alt": "White Sailboat"
      },
      {
          "id": 3199399,
          "width": 2980,
          "height": 3974,
          "url": "https://www.pexels.com/photo/egyptian-symbols-3199399/",
          "photographer": "Lady Escabia",
          "photographer_url": "https://www.pexels.com/@ladyescabia",
          "photographer_id": 873864,
          "avg_color": "#A39B87",
          "src": {
              "original": "https://images.pexels.com/photos/3199399/pexels-photo-3199399.jpeg",
              "large2x": "https://images.pexels.com/photos/3199399/pexels-photo-3199399.jpeg?auto=compress&cs=tinysrgb&dpr=2&h=650&w=940",
              "large": "https://images.pexels.com/photos/3199399/pexels-photo-3199399.jpeg?auto=compress&cs=tinysrgb&h=650&w=940",
              "medium": "https://images.pexels.com/photos/3199399/pexels-photo-3199399.jpeg?auto=compress&cs=tinysrgb&h=350",
              "small": "https://images.pexels.com/photos/3199399/pexels-photo-3199399.jpeg?auto=compress&cs=tinysrgb&h=130",
              "portrait": "https://images.pexels.com/photos/3199399/pexels-photo-3199399.jpeg?auto=compress&cs=tinysrgb&fit=crop&h=1200&w=800",
              "landscape": "https://images.pexels.com/photos/3199399/pexels-photo-3199399.jpeg?auto=compress&cs=tinysrgb&fit=crop&h=627&w=1200",
              "tiny": "https://images.pexels.com/photos/3199399/pexels-photo-3199399.jpeg?auto=compress&cs=tinysrgb&dpr=1&fit=crop&h=200&w=280"
          },
          "liked": false,
          "alt": "Egyptian Symbols"
      },
      {
          "id": 3185480,
          "width": 3090,
          "height": 4755,
          "url": "https://www.pexels.com/photo/photo-of-pyramid-during-daytime-3185480/",
          "photographer": "Alex Azabache",
          "photographer_url": "https://www.pexels.com/@alexazabache",
          "photographer_id": 1664241,
          "avg_color": "#D0BAA7",
          "src": {
              "original": "https://images.pexels.com/photos/3185480/pexels-photo-3185480.jpeg",
              "large2x": "https://images.pexels.com/photos/3185480/pexels-photo-3185480.jpeg?auto=compress&cs=tinysrgb&dpr=2&h=650&w=940",
              "large": "https://images.pexels.com/photos/3185480/pexels-photo-3185480.jpeg?auto=compress&cs=tinysrgb&h=650&w=940",
              "medium": "https://images.pexels.com/photos/3185480/pexels-photo-3185480.jpeg?auto=compress&cs=tinysrgb&h=350",
              "small": "https://images.pexels.com/photos/3185480/pexels-photo-3185480.jpeg?auto=compress&cs=tinysrgb&h=130",
              "portrait": "https://images.pexels.com/photos/3185480/pexels-photo-3185480.jpeg?auto=compress&cs=tinysrgb&fit=crop&h=1200&w=800",
              "landscape": "https://images.pexels.com/photos/3185480/pexels-photo-3185480.jpeg?auto=compress&cs=tinysrgb&fit=crop&h=627&w=1200",
              "tiny": "https://images.pexels.com/photos/3185480/pexels-photo-3185480.jpeg?auto=compress&cs=tinysrgb&dpr=1&fit=crop&h=200&w=280"
          },
          "liked": false,
          "alt": "Photo Of Pyramid During Daytime"
      },
      {
          "id": 1369212,
          "width": 3925,
          "height": 2617,
          "url": "https://www.pexels.com/photo/woman-looking-at-pyramids-1369212/",
          "photographer": "Andreea Ch",
          "photographer_url": "https://www.pexels.com/@andreea-ch-371539",
          "photographer_id": 371539,
          "avg_color": "#929088",
          "src": {
              "original": "https://images.pexels.com/photos/1369212/pexels-photo-1369212.jpeg",
              "large2x": "https://images.pexels.com/photos/1369212/pexels-photo-1369212.jpeg?auto=compress&cs=tinysrgb&dpr=2&h=650&w=940",
              "large": "https://images.pexels.com/photos/1369212/pexels-photo-1369212.jpeg?auto=compress&cs=tinysrgb&h=650&w=940",
              "medium": "https://images.pexels.com/photos/1369212/pexels-photo-1369212.jpeg?auto=compress&cs=tinysrgb&h=350",
              "small": "https://images.pexels.com/photos/1369212/pexels-photo-1369212.jpeg?auto=compress&cs=tinysrgb&h=130",
              "portrait": "https://images.pexels.com/photos/1369212/pexels-photo-1369212.jpeg?auto=compress&cs=tinysrgb&fit=crop&h=1200&w=800",
              "landscape": "https://images.pexels.com/photos/1369212/pexels-photo-1369212.jpeg?auto=compress&cs=tinysrgb&fit=crop&h=627&w=1200",
              "tiny": "https://images.pexels.com/photos/1369212/pexels-photo-1369212.jpeg?auto=compress&cs=tinysrgb&dpr=1&fit=crop&h=200&w=280"
          },
          "liked": false,
          "alt": "Woman Looking At Pyramids"
      }
  ],
  "total_results": 461,
  "next_page": "https://api.pexels.com/v1/search/?page=2&per_page=10&query=Egypt"
}